// Jest Snapshot v1, https://goo.gl/fbAQLP

exports[`Components EmptyList renders correctly 1`] = `
<div
  className="emptylist"
>
  <div>
    Please enter a song name, 
  </div>
  <div>
    an artist, a genre, ...
  </div>
  <div>
    e.g. Adele
  </div>
</div>
`;
