// Jest Snapshot v1, https://goo.gl/fbAQLP

exports[`Components SearchBar renders correctly with default values 1`] = `
<div
  className="searchBar"
>
  <input
    className="search_input"
    onChange={[Function]}
    onKeyPress={[Function]}
    placeholder="Enter song, artist, genre, ..."
    type="text"
    value=""
  />
  <span
    className="search_button"
    onClick={[Function]}
  >
    SEARCH
  </span>
  <div
    className="search_sort"
  >
    <label
      htmlFor="select1"
    >
      Sort by: 
    </label>
    <select
      className="sort_select"
      onChange={[Function]}
      value="default"
    >
      <option
        value="default"
      >
        Default
      </option>
      <option
        value="trackTimeMillis"
      >
        Length
      </option>
      <option
        value="primaryGenreName"
      >
        Genre
      </option>
      <option
        value="trackPrice"
      >
        Price
      </option>
    </select>
  </div>
</div>
`;

exports[`Components SearchBar renders correctly with searching terms 1`] = `
<div
  className="searchBar"
>
  <input
    className="search_input"
    onChange={[Function]}
    onKeyPress={[Function]}
    placeholder="Enter song, artist, genre, ..."
    type="text"
    value="fakeSearchingTerms"
  />
  <span
    className="search_button"
    onClick={[Function]}
  >
    SEARCH
  </span>
  <div
    className="search_sort"
  >
    <label
      htmlFor="select1"
    >
      Sort by: 
    </label>
    <select
      className="sort_select"
      onChange={[Function]}
      value="default"
    >
      <option
        value="default"
      >
        Default
      </option>
      <option
        value="trackTimeMillis"
      >
        Length
      </option>
      <option
        value="primaryGenreName"
      >
        Genre
      </option>
      <option
        value="trackPrice"
      >
        Price
      </option>
    </select>
  </div>
</div>
`;

exports[`Components SearchBar renders correctly with sort method 1`] = `
<div
  className="searchBar"
>
  <input
    className="search_input"
    onChange={[Function]}
    onKeyPress={[Function]}
    placeholder="Enter song, artist, genre, ..."
    type="text"
    value="fakeSearchingTerms"
  />
  <span
    className="search_button"
    onClick={[Function]}
  >
    SEARCH
  </span>
  <div
    className="search_sort"
  >
    <label
      htmlFor="select1"
    >
      Sort by: 
    </label>
    <select
      className="sort_select"
      onChange={[Function]}
      value="trackTimeMillis"
    >
      <option
        value="default"
      >
        Default
      </option>
      <option
        value="trackTimeMillis"
      >
        Length
      </option>
      <option
        value="primaryGenreName"
      >
        Genre
      </option>
      <option
        value="trackPrice"
      >
        Price
      </option>
    </select>
  </div>
</div>
`;

exports[`Components SearchBar renders correctly without sort method 1`] = `
<div
  className="searchBar"
>
  <input
    className="search_input"
    onChange={[Function]}
    onKeyPress={[Function]}
    placeholder="Enter song, artist, genre, ..."
    type="text"
    value="fakeSearchingTerms"
  />
  <span
    className="search_button"
    onClick={[Function]}
  >
    SEARCH
  </span>
  <div
    className="search_sort"
  >
    <label
      htmlFor="select1"
    >
      Sort by: 
    </label>
    <select
      className="sort_select"
      onChange={[Function]}
      value={null}
    >
      <option
        value="default"
      >
        Default
      </option>
      <option
        value="trackTimeMillis"
      >
        Length
      </option>
      <option
        value="primaryGenreName"
      >
        Genre
      </option>
      <option
        value="trackPrice"
      >
        Price
      </option>
    </select>
  </div>
</div>
`;
